{
  "report":[
    {
      "text": "Number of MMDA meetings attended",
      "answerable":true
    },
    {
      "text": "Number of Advisory Committee meetings attended",
      "answerable":true
    },
    {
      "text": "Number of meetings organised for staff",
      "answerable":true
    },
    {
      "text": "Number of Branch Assistants' meetings attended",
      "answerable":true
    }
  ]
}
